{
  "taskDefinition": {
      "volumes": [],
      "family": "<task_name>",
      "executionRoleArn": "arn:aws:iam::<aws_number>:role/ecsTaskExecutionRole",
      "networkMode": "awsvpc",
      
      "containerDefinitions": [
          {
              "environment": [],
              "name": "<container_name>",
              "mountPoints": [],
              "image": "<registry>:latest",
              "cpu": 0,
              "portMappings": [
                  {
                      "protocol": "tcp",
                      "containerPort": 80,
                      "hostPort": 80
                  }
              ],
              "essential": true,
              "volumesFrom": []
          }
      ],
      "status": "ACTIVE",
      "memory": "512",
      "placementConstraints": [],
      "requiresAttributes": [
          {
              "name": "com.amazonaws.ecs.capability.ecr-auth"
          },
          {
              "name": "com.amazonaws.ecs.capability.task-iam-role"
          },
          {
              "name": "ecs.capability.execution-role-ecr-pull"
          },
          {
              "name": "com.amazonaws.ecs.capability.docker-remote-api.1.18"
          },
          {
              "name": "ecs.capability.task-eni"
          }
      ],
      "cpu": "256",
      "compatibilities": [
          "EC2",
          "FARGATE"
      ],
      "requiresCompatibilities": [
          "FARGATE"
      ],
      "taskRoleArn": "arn:aws:iam::<aws_number>:role/ecsTaskExecutionRole",
      "taskDefinitionArn": "arn:aws:ecs:<aws-region>:<aws_number>:task-definition/<task_def>:<revision>",
      "revision": 2
  }
}
